;;;;;;;;;;;;;;;
;;;;;;;;;;;;;;;
;;;;;;;;;;;;;;;
;Lj 2;Santo Amaro;Dt;;;;;;;;;;TEL;(11) 5643-0077;
;End:;Av. Joao Dias;N.º;1713;BAIRRO: ;Sto. Amaro;MUNICÍPIO: ;São Paulo;UF:;SP;CEP:;04756-010;;;
;CNPJ;03.439.316/0002-53;I.E.;115.648.128.118;;;;;;;;;;;
;Lj 3;Ipiranga (Matriz);Dt;11/1/99;;;;;;;;;TEL;(11) 2065-2500;
;End:;Rua dos Patriotas;N.º;1211;BAIRRO: ;Ipiranga;MUNICÍPIO: ;São Paulo;UF:;SP;CEP:;04207-040;;;
;CNPJ;03.439.316/0003-34;I.E.;115.347.651.112;;;;;;;;;;;
;Lj 6;Santos;Dt;4/29/00;;;;;;;;;TEL;(13) 3278-2500;
;End:;Rua Alexandre Martins;N.º;80 - LJ 301 - N.º3;BAIRRO: ;Aparecida;MUNICÍPIO: ;Santos;UF:;SP;CEP:;11025-200;;;
;CNPJ;03.439.316/0006-87;I.E.;633.405.097.115;;;;;;;;;;;
;Lj 7;Sorocaba;Dt;6/7/00;;;;;;;;;TEL;(15) 3331-2500;
;End:;Av. Prof.Izoraida Marques Peres;N.º;401;BAIRRO: ;Pq. Campolim - Esplanada Sh;MUNICÍPIO: ;Sorocaba;UF:;SP;CEP:;18048-110;;;
;CNPJ;03.439.316/0007-68;I.E.;669.372.621.118;;;;;;;;;;;
;Lj 8;S.J. dos Campos;Dt;18/08/2000  Re: 30/08/12;;;;;;;;;TEL;(12) 3947-2500;
;End:;Av. Eng. Francisco Jose Longo;N.º;1595 - Lj 1;BAIRRO: ;Jd. São Dimas;MUNICÍPIO: ;S.J.dos Campos;UF:;SP;CEP:;12.245-001;;;
;CNPJ;03.439.316/0008-49;I.E.;645.408.750.119;;;;;;;;;;;
;Lj 10;Sao Vicente;Dt;7/14/03;;;;;;;;;TEL;(13) 3569-2500;
;End:;Rua  Pref. Jose Monteiro;N.º;1045 - Box 52;BAIRRO: ;Jd. Independência;MUNICÍPIO: ;São Vicente;UF:;SP;CEP:;11380-001;;;
;CNPJ;03.439.316/0010-63;I.E.;657.222.968.113;;;;;;;;;;;
;Lj 11;Marginal Tiete;Dt;2/2/04;;;;;;;;;TEL;(11) 3613-2900;
;End:;Av. Thomas Edson;N.º;1324 - Lj B;BAIRRO: ;Várzea da Barra Funda;MUNICÍPIO: ;São Paulo;UF:;SP;CEP:;01140-001;;;
;CNPJ;03.439.316/0011-44;I.E.;116.710.722.113;;;;;;;;;;;
;Lj 12;Radial Leste;Dt;6/23/04;;;;;;;;;TEL;(11) 2790-4720;
;End:;Av. Alcântara Machado;N.º;1993;BAIRRO: ;Brás;MUNICÍPIO: ;São Paulo;UF:;SP;CEP:;03101-003;;;
;CNPJ;03.439.316/0012-25;I.E.;116.822.308.112;;;;;;;;;;;
;Lj 14;Aricanduva;Dt;11/1/04;;;;;;;;;TEL;(11) 6723 6200;
;End:;Av. Aricanduva;N.º;5555 - Ancora B2;BAIRRO: ;V.Aricanduva;MUNICÍPIO: ;São Paulo;UF:;SP;CEP:;03527-000;;;
;CNPJ;03.439.316/0014-97;I.E.;116.916.525.118;;;;;;;;;;;
;Lj 16;Campinas Dom Pedro;Dt;8/18/05;;;;;;;;;TEL;(19) 3707-2999;
;End:;Rod. Dom Pedro I;N.º;Km 127/128 S/Nº. - Box 25;BAIRRO: ;Pq.Imperador;MUNICÍPIO: ;Campinas;UF:;SP;CEP:;13091-903;;;
;CNPJ;03.439.316/0016-59;I.E.;244.996.089.110;;;;;;;;;;;
;Lj 17;Sao Miguel;Dt;3/9/06;;;;;;;;;TEL;(11) 6130-2500;
;End:;Av. Sao Miguel;N.º;8201;BAIRRO: ;Vila Jacuí - São Miguel;MUNICÍPIO: ;São Paulo;UF:;SP;CEP:;08070-001;;;
;CNPJ;03.439.316/0017-30;I.E.;117.205.933.115;;;;;;;;;;;
Vendas Empresas;Lj 18;Guarulhos;Dt;3/16/06;;;;;;;;;TEL;(11) 6442-2500;
Vendas Empresas;End:;Rua Bartolomeu de Gusmao;N.º;316 - Lt QD 20/26 - Port A;BAIRRO: ;Sta. Francisca;MUNICÍPIO: ;Guarulhos;UF:;SP;CEP:;07024-010;;;
Vendas Empresas;CNPJ;03.439.316/0018-10;I.E.;336.766.939.118;;;;;;;;;;;
;Lj 19;Suzano;Dt;6/1/06;;;;;;;;;TEL;(11) 4745-2500;
;End:;Rua Joao Batista Fitipaldi;N.º;380 - BL A;BAIRRO: ;Vl. Maluf;MUNICÍPIO: ;Suzano;UF:;SP;CEP:;08685-000;;;
;CNPJ;03.439.316/0019-00;I.E.;672.179.270.111;;;;;;;;;;;
;Lj 20;Praia Grande;Dt;8/17/06;;;;;;;;;TEL;(13) 3499-2501;
;End:;Av. Pres. Kennedy;N.º;1876 - Bloco B;BAIRRO: ;Vl. Guilhermina;MUNICÍPIO: ;Praia Grande;UF:;SP;CEP:;11702-200;;;
;CNPJ;03.439.316/0020-35;I.E.;558.202.695.111;;;;;;;;;;;
;Lj 21;Taipas (Pirituba);Dt;10/10/06;;;;;;;;;TEL;(11) 3973-2500;
;End:;Av.Raimundo Pereira de Magalhaes;N.º;11980 - Bloco B;BAIRRO: ;Parada de Taipas - Pirituba;MUNICÍPIO: ;São Paulo;UF:;SP;CEP:;02984-035;;;
;CNPJ;03.439.316/0021-16;I.E.;149.428.478.118;;;;;;;;;;;
;Lj 23;Taubate;Dt;5/3/07;;;;;;;;;TEL;(12) 3634-8400;
;End:;Av. Charles Shnneider;N.º;850;BAIRRO: ;Santa Fé - Pq. Sr. do Bonfim;MUNICÍPIO: ;Taubaté;UF:;SP;CEP:;12040-000;;;
;CNPJ;03.439.316/0023-88;I.E.;688.266.610.114;;;;;;;;;;;
;Lj 24;Mogi das Cruzes;Dt;6/14/07;;;;;;;;;;(11)4791-7300;
;End:;Rua Prof. Ismael Alves dos Santos;N.º;455;BAIRRO: ;Vila Mogilar;MUNICÍPIO: ;Mogi das Cruzes;UF:;SP;CEP:;08773-550;;;
;CNPJ;03.439.316/0024-69;I.E.;454.325.170.110;;;;;;;;;;;
;Lj 25;Tremembe;Dt;8/16/07;;;;;;;;;TEL;(11)2206-5500;
;End:;Av. Coronel Sezefredo Fagundes;N.º;1855;BAIRRO: ;Tucuruvi;MUNICÍPIO: ;São Paulo;UF:;SP;CEP:;02306-000;;;
;CNPJ;03.439.316/0025-40;I.E.;149.746.025.119;;;;;;;;;;;
;Lj 26;Guaruja V. Carvalho;Dt;10/10/07;;;;;;;;;TEL;(13)3342-2914;
;End:;Av. Santos Dumont;N.º;458;BAIRRO: ;Sítio Paecara;MUNICÍPIO: ;Guarujá;UF:;SP;CEP:;11460-000;;;
;CNPJ;03.439.316/0026-20;I.E.;335.222.207.114;;;;;;;;;;;
;Lj 28 ;Diadema;Dt;11/22/07;;;;;;;;;TEL;(11)4077-4826;
;End:;Av. Piraporinha;N.º;50;BAIRRO: ;Vl. Nogueira - Jd. Concórdia;MUNICÍPIO: ;Diadema;UF:;SP;CEP:;09950-000;;;
;CNPJ;03.439.316/0028-92;I.E.;286.281.079.115;;;;;;;;;;;
;Lj 29;Peruibe;Dt;10/31/07;;;;;;;;;TEL;(13)3456-2587;
;End:;Av. Padre Anchieta;N.º;4741;BAIRRO: ;Três Marias;MUNICÍPIO: ;Peruíbe;UF:;SP;CEP:;11750-000;;;
;CNPJ;03.439.316/0029-73;I.E.;524.102.493.113;;;;;;;;;;;
;Lj 30;Bertioga;Dt;11/5/07;;;;;;;;;TEL;(13)3317-5881;
;End:;Av. Dezenove de Maio;N.º;396;BAIRRO: ;Centro - Jd albatroz;MUNICÍPIO: ;Bertioga;UF:;SP;CEP:;11250-970;;;
;CNPJ;03.439.316/0030-07;I.E.;738.079.134.114;;;;;;;;;;;
;Lj 34;Teotônio Vilela;Dt;12/21/07;;;;;;;;;TEL;(11)5971-3003;
;End:;Av. Senador Teotônio Vilela;N.º;8030 - Bloco 2;BAIRRO: ;Jd S. Rafael - Parelheiros;MUNICÍPIO: ;São Paulo;UF:;SP;CEP:;04864-002;;;
;CNPJ;03.439.316/0034-30;I.E.;149.921.341.110;;;;;;;;;;;
;Lj 35;Guaruja Enseada;Dt;22/12/2007  Re:06/12/2012;;;;;;;;;TEL;(13)3351-2266;
;End:;Av Dom Pedro I;N.º;2520;BAIRRO: ;Cid. Atlântica;MUNICÍPIO: ;Guarujá;UF:;SP;CEP:;11440-002;;;
;CNPJ;03.439.316/0035-11;I.E.;335.224.584.119;;;;;;;;;;;
;Lj 36;Itanhaem;Dt;1/29/08;;;;;;;;;TEL;(13)3426-4524;
;End:;Rua Joao Pedro Orsi;N.º;S/N - Lotes 117 a 120;BAIRRO: ;Jd. Fazendinha;MUNICÍPIO: ;Itanhaém;UF:;SP;CEP:;11740-000;;;
;CNPJ;03.439.316/0036-00;I.E.;369.113.517.118;;;;;;;;;;;
;Lj 37;Mongagua;Dt;2/15/08;;;;;;;;;TEL;(13)3507-4953;
;End:;Rua Antonio Martins de Araujo;N.º;100;BAIRRO: ;Centro;MUNICÍPIO: ;Mongaguá;UF:;SP;CEP:;11730-000;;;
;CNPJ;03.439.316/0037-83;I.E.;459.090.310.113;;;;;;;;;;;
;Lj 39;Cubatao;Dt;2/25/08;;;;;;;;;TEL;(13)3372-3777;
;End:; Av. Nove de abril;N.º;3400;BAIRRO: ;Vila Nova;MUNICÍPIO: ;Cubatão;UF:;SP;CEP:;11520-000;;;
;CNPJ;03.439.316/0039-45;I.E.;283.118.673.114;;;;;;;;;;;
;Lj 41;Atibaia;Dt;3/15/08;;;;;;;;;TEL;(11) 4418 1665;
;End:;Av. Dr. Joviano Alvim;N.º;1190;BAIRRO: ;Atibaia Jardim;MUNICÍPIO: ;Atibaia;UF:;SP;CEP:;12942-653;;;
;CNPJ;03.439.316/0041-60;I.E.;190.195.377.113;;;;;;;;;;;
;Lj 43;Guaratingueta;Dt;4/12/08;;;;;;;;;TEL ;(12)3132-1482;
;End:;Av. Juscelino Kubitschek de Oliveira;N.º;880;BAIRRO: ;Campo do Galvão;MUNICÍPIO: ;Guaratinguetá;UF:;SP;CEP:;12505-300;;;
;CNPJ;03.439.316/0043-21;I.E.;332.167.631.113;;;;;;;;;;;
;Lj 45;Jacarei;Dt;5/8/08;;;;;;;;;TEL;(12)3952-6853;
;End:;Praca Charles Gates;N.º;90;BAIRRO: ;Jardim das Industrias;MUNICÍPIO: ;Jacareí;UF:;SP;CEP:;12306-090;;;
;CNPJ;03.439.316/0045-93;I.E.;392.238.172.111;;;;;;;;;;;
;Lj 46;Limeira;Dt;6/20/08;;;;;;;;;TEL;(19)3444-2777;
;End:;Rua Miguel Guidotti;N.º;2155 - Port 2;BAIRRO: ;Pq. Egisto Ragazzo;MUNICÍPIO: ;Limeira;UF:;SP;CEP:;13485-342;;;
;CNPJ;03.439.316/0046-74;I.E.;417.303.663.116;;;;;;;;;;;
;Lj 48;Marechal Tito;Dt;10/23/08;;;;;;;;;TEL;(11)2025-5700;
;End:;Av. Marechal Tito;N.º;5768;BAIRRO: ;;MUNICÍPIO: ;São Paulo;UF:;SP;CEP:;08115-000;;;
;CNPJ;03.439.316/0048-36;I.E.;148.262.664.115;;;;;;;;;;;
;Lj 49;Indaiatuba;Dt;11/27/08;;;;;;;;;TEL;(19)3875-7054;
;End:;Rua Presidente Kennedy;N.º;303;BAIRRO: ;Cidade Nova I;MUNICÍPIO: ;Indaiatuba;UF:;SP;CEP:;13334-170;;;
;CNPJ;03.439.316/0049-17;I.E.;353.256.299.115;;;;;;;;;;;
;Lj 50;Maua;Dt;12/10/08;;;;;;;;;TEL;(11)4547-6320;
;End:;Av. Governador Mario Covas Junior;N.º;1;BAIRRO: ;Centro;MUNICÍPIO: ;Mauá;UF:;SP;CEP:;09390-040;;;
;CNPJ;03.439.316/0050-50;I.E.;442.230.211.119;;;;;;;;;;;
;Lj 51;Itu;Dt;12/20/08;;;;;;;;;TEL;(11)4013-7180;
;End:;Av. Nove de Julho;N.º;897 -  Loja 2;BAIRRO: ;Jd Padre Bento;MUNICÍPIO: ;Itú;UF:;SP;CEP:;13313-100;;;
;CNPJ;03.439.316/0051-31;I.E.;387.198.097.112;;;;;;;;;;;
;Lj 52;Mogi-Guacu;Dt;8/27/09;;;;;;;;;TEL;(19)3851-4500;
;End:;Av. Mogi Mirim;N.º;256;BAIRRO: ;Centro;MUNICÍPIO: ;Mogi-Guaçú;UF:;SP;CEP:;13844-110;;;
;CNPJ;03.439.316/0052-12;I.E.;455.189.535.113;;;;;;;;;;;
;Lj 53;Santo Andre;Dt;11/25/10;;;;;;;;;TEL;;
;End:;Rua Antonio Cardoso;N.º;536 - SUC B;BAIRRO: ;Bangu;MUNICÍPIO: ;Santo André;UF:;SP;CEP:;09280-570;;;
;CNPJ;03.439.316/0053-01;I.E.;626.783.610.111;;;;;;;;;;;
;Lj 56;Guarapiranga;Dt;9/23/10;;;;;;;;;TEL;(11) 5525-7084;
;End:;Avenida Guarapiranga;N.º;881 -  Loja 1;BAIRRO: ;Vila Socorro;MUNICÍPIO: ;São Paulo;UF:;SP;CEP:;04762-000;;;
;CNPJ;03.439.316/0056-46;I.E.;147.392.192.115;;;;;;;;;;;
;Lj 57;Sta Barbara D'Oeste;Dt;11/4/10;;;;;;;;;TEL;(19) 3457-9333;
;End:;Rua do osmio;N.º;915 Comércio 01;BAIRRO: ;Sítio Geriva;MUNICÍPIO: ;Sta. Bárbara D'Oeste;UF:;SP;CEP:;13456-625;;;
;CNPJ;03.439.316/0057-27;I.E.;606.093.247.115;;;;;;;;;;;
;Lj 58;Aruja;Dt;12/21/10;;;;;;;;;TEL;(11) 4555-4218;
;End:;Avenida Joao Manoel;N.º;1150;BAIRRO: ;Arujá Centro Residencial;MUNICÍPIO: ;Arujá;UF:;SP;CEP:;07400-000;;;
;CNPJ;03.439.316/0058-08;I.E.;188.029.029.119;;;;;;;;;;;
;Lj 59;Fernao Dias;Dt;2/9/11;;;;;;;;;TEL;(11) 2206-7640;
;End:;Rodovia Fernao  Dias;N.º;S/N  - KM 87;BAIRRO: ;Parque Edu Chaves;MUNICÍPIO: ;São Paulo;UF:;SP;CEP:;02283-000;;;
;CNPJ;03.439.316/0059-99;I.E.;147.781.792.117;;;;;;;;;;;
;Lj 60;Guaruja Balsa;Dt;14/04//2011;;;;;;;;;TEL;(13) 3355-1096;
;End:;Avenida Adhemar de Barros;N.º;1531;BAIRRO: ;Vila Sta Rosa;MUNICÍPIO: ;Guaruja;UF:;SP;CEP:;11430-003;;;
;CNPJ;03.439.316/0060-22;I.E.;335.132.059.112;;;;;;;;;;;
;Lj 61;Caraguatatuba;Dt;5/12/11;;;;;;;;;TEL;(12) 3897-8895;
;End:;Avenida Rio Branco;N.º;450;BAIRRO: ;Indaia;MUNICÍPIO: ;Caraguatatuba;UF:;SP;CEP:;11665-600;;;
;CNPJ;03.439.316/0061-03;I.E.;254.065.088.117;;;;;;;;;;;
;Lj 62;Poa;Dt;6/16/11;;;;;;;;;TEL;(11) 4634-4799;
;End:;Rod. Joao Afonso de Souza Castellano;N.º;141 - Loja 1;BAIRRO: ;Vila Lucia;MUNICÍPIO: ;Poá;UF:;SP;CEP:;08557-700;;;
;CNPJ;03.439.316/0062-94;I.E.;546.053.166.110;;;;;;;;;;;
;Lj 63;Sao Carlos;Dt;8/25/11;;;;;;;;;TEL;(16) 3363-4110;
;End:;Avenida Getulio Vargas;N.º;157;BAIRRO: ;Vila Lutfalla;MUNICÍPIO: ;São Carlos;UF:;SP;CEP:;13570-672;;;
;CNPJ;03.439.316/0063-75;I.E.;637.166.334.115;;;;;;;;;;;
;Lj 65;Guainases;Dt;9/28/11;;;;;;;;;TEL;(11) 3124-1360;
;End:;Estrada Itaquera-Guainases;N.º;"2000 - ""D""";BAIRRO: ;Jardim Helena;MUNICÍPIO: ;São Paulo;UF:;SP;CEP:;08420-000;;;
;CNPJ;03.439.316/0065-37;I.E.;146.461.084.113;;;;;;;;;;;
;Lj 67;Jundiai;Dt;5/28/13;;;;;;;;;TEL;;
;End:;Av. Antonio Frederico Ozanan;N.º;6080 - Lj 1;BAIRRO: ;Vila Rio Branco;MUNICÍPIO: ;Jundiaí;UF:;SP;CEP:;13215-276;;;
;CNPJ;03.439.316/0067-07;I.E.;407.319.024.112;;;;;;;;;;;
Vendas Empresas;Lj 68;Tambore;Dt;9/26/14;;;;;;;;;TEL;;
Vendas Empresas;End:;Rua Alameda Araguaia - Sitio Tambore;N.º;1801;BAIRRO: ;Alphaville Industrial;MUNICÍPIO: ;Barueri;UF:;SP;CEP:;06455-000;;;
Vendas Empresas;CNPJ;03.439.316/0068-80;I.E.;206.359.020.112;;;;;;;;;;;
;LJ 69;Sumare;;;;;;;;;;;;;
;End:;Av. Jose Mancini,;N.º;350;BAIRRO: ;Jardim São Carlos;MUNICÍPIO: ;Sumare;UF:;SP;CEP:;13170-040;CNAE - P;;
;;;;;;;;;;;;;;;
Vendas Empresas;Lj 70;Sodimac Ribeirao Preto;Dt;11/21/14;;;;;;;;;TEL;;
Vendas Empresas;End:;Av Fabio Barreto ;N.º;251;BAIRRO: ;Vila Tibério;MUNICÍPIO: ;Ribeirão Preto;UF:;SP;CEP:;14.050-000 ;;;
Vendas Empresas;CNPJ;03.439.316/0070-02;I.E.;797.158.357.114;;;;;;;;;;;
Vendas Empresas;Lj 71;Sodimac Sao Jose dos Campos;Dt;1/20/16;;;;;;;;;TEL;;
Vendas Empresas;End:;Rodovia Presidente Dutra;N.º;KM 155;BAIRRO: ;Jardim Das Indústrias;MUNICÍPIO: ;São Jose Dos Campos ;UF:;SP;CEP:;12240-420;;;
Vendas Empresas;CNPJ;03.439.316/0071-85;I.E.;645.758.158.116;;;;;;;;;;;
Vendas Empresas;Lj 72;Sodimac Anchieta;Dt;30.08.2017;;;;;;;;;TEL;;
Vendas Empresas;End:;Av Marginal Direita Anchieta;N.º;S/N  KM 11,5;BAIRRO: ;Jardim Sta Cruz (Sacomã);MUNICÍPIO: ;São Paulo;UF:;SP;CEP:;04182-001;;;
Vendas Empresas;CNPJ;03.439.316/0072-66;I.E.;118.466.518.118;;;;;;;;;;;
Vendas Empresas;Lj 73;Sodimac Osasco;Dt;2/12/19;;;;;;;;;TEL;(11) 2065-2552 ;
Vendas Empresas;End:;AVENIDA FRANZ VOEGELI;N.º;751;BAIRRO: ;Continental;MUNICÍPIO: ;Osasco;UF:;SP;CEP:;06.020-190 ;;;
Vendas Empresas;CNPJ;03.439.316/0073-47;I.E.;120.072.211.114;;;;;;;;;;;