[
  {
    "Loja": "Lj 2",
    "Nome": "Santo Amaro",
    "endereco": "Av. João Dias",
    "numero": "1713",
    "bairro": "Sto. Amaro",
    "municipio": "São Paulo",
    "uf": "SP",
    "latitude": "-23.6447422",
    "longitude": "-46.7262551",
    "cnpj": "03439316000253"
  },
  {
    "Loja": "Lj 3",
    "Nome": "Ipiranga (Matriz)",
    "endereco": "Rua dos Patriotas",
    "numero": "1211",
    "bairro": "Ipiranga",
    "municipio": "São Paulo",
    "uf": "SP",
    "latitude": "-23.5834446",
    "longitude": "-46.6056400",
    "cnpj": "03439316000334",
    "publicoAlvo" : "pj"
  },
  {
    "Loja": "Lj 6",
    "Nome": "Santos",
    "endereco": "Rua Alexandre Martins",
    "numero": "80 - LJ 301 - N.º3",
    "bairro": "Aparecida",
    "municipio": "Santos",
    "uf": "SP",
    "latitude": "-23.9774558",
    "longitude": "-46.3092672",
    "cnpj": "03439316000687"
  },
  {
    "Loja": "Lj 7",
    "Nome": "Sorocaba",
    "endereco": "Av. Prof.Izoraida Marques Peres",
    "numero": "401",
    "bairro": "Pq. Campolim - Esplanada Sh",
    "municipio": "Sorocaba",
    "uf": "SP",
    "latitude": "-23.5338594",
    "longitude": "-47.4654934",
    "cnpj": "03439316000768"
  },
  {
    "Loja": "Lj 8",
    "Nome": "S.J. dos Campos",
    "endereco": "Av. Eng. Francisco José Longo",
    "numero": "1595 - Lj 1",
    "bairro": "Jd. São Dimas",
    "municipio": "S.J.dos Campos",
    "uf": "SP",
    "latitude": "-23.2003733",
    "longitude": "-45.888954",
    "cnpj": "03439316000849"
  },
  {
    "Loja": "Lj 10",
    "Nome": "São Vicente",
    "endereco": "Rua  Pref. José Monteiro",
    "numero": "1045 - Box 52",
    "bairro": "Jd. Independência",
    "municipio": "São Vicente",
    "uf": "SP",
    "latitude": "-23.96722",
    "longitude": "-46.369151",
    "cnpj": "03439316001063"
  },
  {
    "Loja": "Lj 11",
    "Nome": "Marginal Tietê",
    "endereco": "Av. Thomas Edson",
    "numero": "1324 - Lj B",
    "bairro": "Várzea da Barra Funda",
    "municipio": "São Paulo",
    "uf": "SP",
    "latitude": "-23.5192372",
    "longitude": "-46.6692375",
    "cnpj": "03439316001144"
  },
  {
    "Loja": "Lj 12",
    "Nome": "Radial Leste",
    "endereco": "Av. Alcântara Machado",
    "numero": "1993",
    "bairro": "Brás",
    "municipio": "São Paulo",
    "uf": "SP",
    "latitude": "-23.5476643",
    "longitude": "-46.602319",
    "cnpj": "03439316001225"
  },
  {
    "Loja": "Lj 14",
    "Nome": "Aricanduva",
    "endereco": "Av. Aricanduva",
    "numero": "5555 - Ancora B2",
    "bairro": "V.Aricanduva",
    "municipio": "São Paulo",
    "uf": "SP",
    "latitude": "-23.5649519",
    "longitude": "-46.5008798",
    "cnpj": "03439316001497"
  },
  {
    "Loja": "Lj 16",
    "Nome": "Campinas Dom Pedro",
    "endereco": "Rod. Dom Pedro I",
    "numero": "Km 127/128 S/Nº. - Box 25",
    "bairro": "Pq.Imperador",
    "municipio": "Campinas",
    "uf": "SP",
    "latitude": "-22.9126758",
    "longitude": "-46.9586678",
    "cnpj": "03439316001659"
  },
  {
    "Loja": "Lj 17",
    "Nome": "São Miguel",
    "endereco": "Av. São Miguel",
    "numero": "8201",
    "bairro": "Vila Jacuí - São Miguel",
    "municipio": "São Paulo",
    "uf": "SP",
    "latitude": "-23.4999960",
    "longitude": "-46.4686806",
    "cnpj": "03439316001730"
  },
  {
    "Loja": "Lj 18",
    "Nome": "Guarulhos",
    "endereco": "Rua Bartolomeu de Gusmão",
    "numero": "316 - Lt QD 20/26 - Port A",
    "bairro": "Sta. Francisca",
    "municipio": "Guarulhos",
    "uf": "SP",
    "latitude": "-23.4775780",
    "longitude": "-46.5305409",
    "cnpj": "03439316001810",
    "publicoAlvo" : "pj"
  },
  {
    "Loja": "Lj 19",
    "Nome": "Suzano",
    "endereco": "Rua João Batista Fitipaldi",
    "numero": "380 - BL A",
    "bairro": "Vl. Maluf",
    "municipio": "Suzano",
    "uf": "SP",
    "latitude": "-23.52354527",
    "longitude": "-46.30330982",
    "cnpj": "03439316001900"
  },
  {
    "Loja": "Lj 20",
    "Nome": "Praia Grande",
    "endereco": "Av. Pres. Kennedy",
    "numero": "1876 - Bloco B",
    "bairro": "Vl. Guilhermina",
    "municipio": "Praia Grande",
    "uf": "SP",
    "latitude": "-24.006471880000000",
    "longitude": "-46.427591150000000",
    "cnpj": "03439316002035"
  },
  {
    "Loja": "Lj 21",
    "Nome": "Taipas (Pirituba)",
    "endereco": "Av.Raimundo Pereira de Magalhães",
    "numero": "11980 - Bloco B",
    "bairro": "Parada de Taipas - Pirituba",
    "municipio": "São Paulo",
    "uf": "SP",
    "latitude": "-23.436696999999900",
    "longitude": "-46.720615000000000",
    "cnpj": "03439316002116"
  },
  {
    "Loja": "Lj 23",
    "Nome": "Taubaté",
    "endereco": "Av. Charles Shnneider",
    "numero": "850",
    "bairro": "Santa Fé - Pq. Sr. do Bonfim",
    "municipio": "Taubaté",
    "uf": "SP",
    "latitude": "-23.024035000000000",
    "longitude": "-45.575462999999900",
    "cnpj": "03439316002388"
  },
  {
    "Loja": "Lj 24",
    "Nome": "Mogi das Cruzes",
    "endereco": "Rua Prof. Ismael Alves dos Santos",
    "numero": "455",
    "bairro": "Vila Mogilar",
    "municipio": "Mogi das Cruzes",
    "uf": "SP",
    "latitude": "-23.513760999999900",
    "longitude": "-46.188614999999900",
    "cnpj": "03439316002469"
  },
  {
    "Loja": "Lj 25",
    "Nome": "Tremembé",
    "endereco": "Av. Coronel Sezefredo Fagundes",
    "numero": "1855",
    "bairro": "Tucuruvi",
    "municipio": "São Paulo",
    "uf": "SP",
    "latitude": "-23.462889600000000",
    "longitude": "-46.603415640000000",
    "cnpj": "03439316002540"
  },
  {
    "Loja": "Lj 26",
    "Nome": "Guarujá V. Carvalho",
    "endereco": "Av. Santos Dumont",
    "numero": "458",
    "bairro": "Sítio Paecara",
    "municipio": "Guarujá",
    "uf": "SP",
    "latitude": "-23.987328920000000",
    "longitude": "-46.264491310000000",
    "cnpj": "03439316002620"
  },
  {
    "Loja": "Lj 28 ",
    "Nome": "Diadema",
    "endereco": "Av. Piraporinha",
    "numero": "50",
    "bairro": "Vl. Nogueira - Jd. Concórdia",
    "municipio": "Diadema",
    "uf": "SP",
    "latitude": "-23.692812930000000",
    "longitude": "-46.583297300000000",
    "cnpj": "03439316002892"
  },
  {
    "Loja": "Lj 29",
    "Nome": "Peruibe",
    "endereco": "Av. Padre Anchieta",
    "numero": "4741",
    "bairro": "Três Marias",
    "municipio": "Peruíbe",
    "uf": "SP",
    "latitude": "-24.298158999999900",
    "longitude": "-46.971060999999900",
    "cnpj": "03439316002973"
  },
  {
    "Loja": "Lj 30",
    "Nome": "Bertioga",
    "endereco": "Av. Dezenove de Maio",
    "numero": "396",
    "bairro": "Centro - Jd albatroz",
    "municipio": "Bertioga",
    "uf": "SP",
    "latitude": "-23.827873",
    "longitude": "-46.138714",
    "cnpj": "03439316003007"
  },
  {
    "Loja": "Lj 34",
    "Nome": "Teotônio Vilela",
    "endereco": "Av. Senador Teotônio Vilela",
    "numero": "8030 - Bloco 2",
    "bairro": "Jd S. Rafael - Parelheiros",
    "municipio": "São Paulo",
    "uf": "SP",
    "latitude": "-23.763303750000000",
    "longitude": "-46.716254610000000",
    "cnpj": "03439316003430"
  },
  {
    "Loja": "Lj 35",
    "Nome": "Guarujá Enseada",
    "endereco": "Av Dom Pedro I",
    "numero": "2520",
    "bairro": "Cid. Atlântica",
    "municipio": "Guarujá",
    "uf": "SP",
    "latitude": "-23.981823660000000",
    "longitude": "-46.229026150000000",
    "cnpj": "03439316003511"
  },
  {
    "Loja": "Lj 36",
    "Nome": "Itanhaém",
    "endereco": "Rua João Pedro Orsi",
    "numero": "S/N - Lotes 117 a 120",
    "bairro": "Jd. Fazendinha",
    "municipio": "Itanhaém",
    "uf": "SP",
    "latitude": "-24.175314110000000",
    "longitude": "-46.783288990000000",
    "cnpj": "03439316003600"
  },
  {
    "Loja": "Lj 37",
    "Nome": "Mongaguá",
    "endereco": "Rua Antonio Martins de Araújo",
    "numero": "100",
    "bairro": "Centro",
    "municipio": "Mongaguá",
    "uf": "SP",
    "latitude": "-24.1075246",
    "longitude": "-46.6801919",
    "cnpj": "03439316003783"
  },
  {
    "Loja": "Lj 39",
    "Nome": "Cubatão",
    "endereco": " Av. Nove de abril",
    "numero": "3400",
    "bairro": "Vila Nova",
    "municipio": "Cubatão",
    "uf": "SP",
    "latitude": "-23.895689710000000",
    "longitude": "-46.421307600000000",
    "cnpj": "03439316003945"
  },
  {
    "Loja": "Lj 41",
    "Nome": "Atibaia",
    "endereco": "Av. Dr. Joviano Alvim",
    "numero": "1190",
    "bairro": "Atibaia Jardim",
    "municipio": "Atibaia",
    "uf": "SP",
    "latitude": "-23.123120000000000",
    "longitude": "-46.555700000000000",
    "cnpj": "03439316004160"
  },
  {
    "Loja": "Lj 43",
    "Nome": "Guaratinguetá",
    "endereco": "Av. Juscelino Kubitschek de Oliveira",
    "numero": "880",
    "bairro": "Campo do Galvão",
    "municipio": "Guaratinguetá",
    "uf": "SP",
    "latitude": "-22.813624270000000",
    "longitude": "-45.202159910000000",
    "cnpj": "03439316004321"
  },
  {
    "Loja": "Lj 45",
    "Nome": "Jacareí",
    "endereco": "Praça Charles Gates",
    "numero": "90",
    "bairro": "Jardim das Industrias",
    "municipio": "Jacareí",
    "uf": "SP",
    "latitude": "-23.289705999999900",
    "longitude": "-45.953677999999900",
    "cnpj": "03439316004593"
  },
  {
    "Loja": "Lj 46",
    "Nome": "Limeira",
    "endereco": "Rua Miguel Guidotti",
    "numero": "2155 - Port 2",
    "bairro": "Pq. Egisto Ragazzo",
    "municipio": "Limeira",
    "uf": "SP",
    "latitude": "-22.536845300000000",
    "longitude": "-47.382320070000000",
    "cnpj": "03439316004674"
  },
  {
    "Loja": "Lj 48",
    "Nome": "Marechal Tito",
    "endereco": "Av. Marechal Tito",
    "numero": "5768",
    "bairro": "",
    "municipio": "São Paulo",
    "uf": "SP",
    "latitude": "-23.493404330000000",
    "longitude": "-46.389081210000000",
    "cnpj": "03439316004836"
  },
  {
    "Loja": "Lj 49",
    "Nome": "Indaiatuba",
    "endereco": "Rua Presidente Kennedy",
    "numero": "303",
    "bairro": "Cidade Nova I",
    "municipio": "Indaiatuba",
    "uf": "SP",
    "latitude": "-23.078569890000000",
    "longitude": "-47.212314230000000",
    "cnpj": "03439316004917"
  },
  {
    "Loja": "Lj 50",
    "Nome": "Mauá",
    "endereco": "Av. Governador Mario Covas Júnior",
    "numero": "1",
    "bairro": "Centro",
    "municipio": "Mauá",
    "uf": "SP",
    "latitude": "-23.668153000000000",
    "longitude": "-46.460275000000000",
    "cnpj": "03439316005050"
  },
  {
    "Loja": "Lj 51",
    "Nome": "Itú",
    "endereco": "Av. Nove de Julho",
    "numero": "897 -  Loja 2",
    "bairro": "Jd Padre Bento",
    "municipio": "Itú",
    "uf": "SP",
    "latitude": "-23.255524070000000",
    "longitude": "-47.316074210000000",
    "cnpj": "03439316005131"
  },
  {
    "Loja": "Lj 52",
    "Nome": "Mogi-Guaçú",
    "endereco": "Av. Mogi Mirim",
    "numero": "256",
    "bairro": "Centro",
    "municipio": "Mogi-Guaçú",
    "uf": "SP",
    "latitude": "-22.374436960000000",
    "longitude": "-46.941984020000000",
    "cnpj": "03439316005212"
  },
  {
    "Loja": "Lj 53",
    "Nome": "Santo André",
    "endereco": "Rua Antonio Cardoso",
    "numero": "536 - SUC B",
    "bairro": "Bangu",
    "municipio": "Santo André",
    "uf": "SP",
    "latitude": "-23.646170450000000",
    "longitude": "-46.524004640000000",
    "cnpj": "03439316005301"
  },
  {
    "Loja": "Lj 56",
    "Nome": "Guarapiranga",
    "endereco": "Avenida Guarapiranga",
    "numero": "881 -  Loja 1",
    "bairro": "Vila Socorro",
    "municipio": "São Paulo",
    "uf": "SP",
    "latitude": "-23.675760000000000",
    "longitude": "-46.734183000000000",
    "cnpj": "03439316005646"
  },
  {
    "Loja": "Lj 57",
    "Nome": "Sta Bárbara D'Oeste",
    "endereco": "Rua do Ósmio",
    "numero": "915 Comércio 01",
    "bairro": "Sítio Geriva",
    "municipio": "Sta. Bárbara D'Oeste",
    "uf": "SP",
    "latitude": "-22.746958430000000",
    "longitude": "-47.365060690000000",
    "cnpj": "03439316005727"
  },
  {
    "Loja": "Lj 58",
    "Nome": "Arujá",
    "endereco": "Avenida João Manoel",
    "numero": "1150",
    "bairro": "Arujá Centro Residencial",
    "municipio": "Arujá",
    "uf": "SP",
    "latitude": "-23.396709999999900",
    "longitude": "-46.333658999999900",
    "cnpj": "03439316005808"
  },
  {
    "Loja": "Lj 59",
    "Nome": "Fernão Dias",
    "endereco": "Rodovia Fernão  Dias",
    "numero": "S/N  - KM 87",
    "bairro": "Parque Edu Chaves",
    "municipio": "São Paulo",
    "uf": "SP",
    "latitude": "-23.404290000000000",
    "longitude": "-46.576120000000000",
    "cnpj": "03439316005999"
  },
  {
    "Loja": "Lj 60",
    "Nome": "Guaruja Balsa",
    "endereco": "Avenida Adhemar de Barros",
    "numero": "1531",
    "bairro": "Vila Sta Rosa",
    "municipio": "Guaruja",
    "uf": "SP",
    "latitude": "-23.991883870000000",
    "longitude": "-46.275187550000000",
    "cnpj": "03439316006022"
  },
  {
    "Loja": "Lj 61",
    "Nome": "Caraguatatuba",
    "endereco": "Avenida Rio Branco",
    "numero": "450",
    "bairro": "Indaia",
    "municipio": "Caraguatatuba",
    "uf": "SP",
    "latitude": "-23.627501880000000",
    "longitude": "-45.424441720000000",
    "cnpj": "03439316006103"
  },
  {
    "Loja": "Lj 62",
    "Nome": "Poá",
    "endereco": "Rod. João Afonso de Souza Castellano",
    "numero": "141 - Loja 1",
    "bairro": "Vila Lucia",
    "municipio": "Poá",
    "uf": "SP",
    "latitude": "-23.510866770000000",
    "longitude": "-46.339499950000000",
    "cnpj": "03439316006294"
  },
  {
    "Loja": "Lj 63",
    "Nome": "São Carlos",
    "endereco": "Avenida Getulio Vargas",
    "numero": "157",
    "bairro": "Vila Lutfalla",
    "municipio": "São Carlos",
    "uf": "SP",
    "latitude": "-22.032285000000000",
    "longitude": "-47.887869000000000",
    "cnpj": "03439316006375"
  },
  {
    "Loja": "Lj 65",
    "Nome": "Guainases",
    "endereco": "Estrada Itaquera-Guainases",
    "numero": "\"2000 - \"\"D\"\"\"",
    "bairro": "Jardim Helena",
    "municipio": "São Paulo",
    "uf": "SP",
    "latitude": "-23.533495810000000",
    "longitude": "-46.430037830000000",
    "cnpj": "03439316006537"
  },
  {
    "Loja": "Lj 67",
    "Nome": "Jundiaí",
    "endereco": "Av. Antonio Frederico Ozanan",
    "numero": "6080 - Lj 1",
    "bairro": "Vila Rio Branco",
    "municipio": "Jundiaí",
    "uf": "SP",
    "latitude": "-23.194279999999900",
    "longitude": "-46.869259999999900",
    "cnpj": "03439316006707"
  },
  {
    "Loja": "Lj 68",
    "Nome": "Tamboré",
    "endereco": "Rua Alameda Araguaia - Sítio Tamboré",
    "numero": "1801",
    "bairro": "Alphaville Industrial",
    "municipio": "Barueri",
    "uf": "SP",
    "latitude": "-23.499902890000000",
    "longitude": "-46.843409100000000",
    "cnpj": "03439316006880",
    "publicoAlvo": "pj"
  },
  {
    "endereco": "Av Fabio Barreto ",
    "numero": "251",
    "bairro": "Vila Tibério",
    "municipio": "Ribeirão Preto",
    "uf": "SP",
    "Loja": "Lj 70",
    "Nome": "Sodimac Ribeirão Preto",
    "latitude": "-21.168264",
    "longitude": "-47.812459",
    "cnpj": "03439316007002",
    "publicoAlvo": "pj"
  },
  {
    "Loja": "Lj 71",
    "Nome": "Sodimac São Jose dos Campos",
    "endereco": "Rodovia Presidente Dutra",
    "numero": "KM 155",
    "bairro": "Jardim Das Indústrias",
    "municipio": "São Jose Dos Campos ",
    "uf": "SP",
    "latitude": "-23.238272",
    "longitude": "-45.920171",
    "cnpj": "03439316007185",
    "publicoAlvo": "pj"
  },
  {
    "Loja": "Lj 72",
    "Nome": "Sodimac Anchieta",
    "endereco": "Av Marginal Direita Anchieta",
    "numero": "S/N  KM 11",
    "latitude": "-23.623017",
    "longitude": "-46.600888",
    "cnpj": "03439316007266",
    "publicoAlvo": "pj"
  },
  {
    "Loja": "Lj 73",
    "Nome": "Sodimac Osasco",
    "endereco": "AVENIDA FRANZ VOEGELI",
    "numero": "751",
    "bairro": "Continental",
    "municipio": "Osasco",
    "uf": "SP",
    "latitude": "-23.538376",
    "longitude": "-46.762849",
    "cnpj": "03439316007347",
    "publicoAlvo": "pj"
  }
]
